<?xml version="1.0" encoding="UTF-8"?>
<svg id="a" data-name="Layer 1" xmlns="http://www.w3.org/2000/svg" viewBox="0 0 19.53 9">
  <defs>
    <style>
      .b {
        fill: #1a237e;
      }
    </style>
  </defs>
  <polygon class="b" points="14.69 0 13.94 .81 17.38 4 0 4 0 5 17.38 5 13.94 8.19 14.69 9 19.53 4.5 14.69 0"/>
</svg>