<?xml version="1.0" encoding="UTF-8"?>
<svg id="a" data-name="Layer 1" xmlns="http://www.w3.org/2000/svg" viewBox="0 0 45.43 35.39">
  <defs>
    <style>
      .b {
        fill: #fff;
      }
    </style>
  </defs>
  <path class="b" d="m38.52,21.77l-2.91-1.68c.29-1.58.29-3.21,0-4.79l2.91-1.68c.33-.19.48-.59.38-.96-.76-2.43-2.05-4.63-3.74-6.46-.26-.28-.68-.35-1.01-.16l-2.91,1.68c-1.22-1.05-2.63-1.86-4.15-2.4V1.96c0-.38-.27-.72-.64-.8-2.51-.56-5.07-.53-7.46,0-.38.08-.64.42-.64.8v3.36c-1.52.54-2.92,1.35-4.15,2.4l-2.9-1.68c-.33-.19-.75-.13-1.01.16-1.69,1.82-2.98,4.02-3.74,6.46-.12.37.04.77.38.96l2.91,1.68c-.29,1.58-.29,3.21,0,4.79l-2.91,1.68c-.33.19-.48.59-.38.96.76,2.43,2.05,4.63,3.74,6.46.26.28.68.35,1.01.16l2.91-1.68c1.22,1.05,2.63,1.86,4.15,2.4v3.36c0,.38.27.72.64.8,2.51.56,5.07.53,7.46,0,.38-.08.64-.42.64-.8v-3.36c1.52-.54,2.92-1.35,4.15-2.4l2.91,1.68c.33.19.75.13,1.01-.16,1.69-1.82,2.98-4.02,3.74-6.46.1-.38-.05-.77-.38-.96Zm-15.81,1.39c-3.01,0-5.46-2.45-5.46-5.46s2.45-5.46,5.46-5.46,5.46,2.45,5.46,5.46-2.45,5.46-5.46,5.46Z"/>
</svg>